Current Population Survey Food Security Supplement - Ingest, Wrangle, Visualize
…
censusapi’s core function is getCensus(), which translates R code to Census API queries. The name argument references the API name; the censusapi documentation or the function listCensusApis() helps you understand how to format this.

2.2.1 List available APIs by listCensusApis()

To see a current table of every available endpoint, run listCensusApis():

censusapi::listCensusApis() |> 
  # convert data.frame to tibble
  as_tibble() |>
  # only keep the columns needed
  select(title, name, vintage, type, temporal, url) |>
  print()

# A tibble: 1,611 × 6
   title                                      name  vintage type  temporal url  
   <chr>                                      <chr>   <int> <chr> <chr>    <chr>
 1 Current Population Survey: Basic Monthly   cps/…    2024 Micr… 2024-04… http…
 2 Current Population Survey: Basic Monthly   cps/…    2024 Micr… 2024-02… http…
 3 Current Population Survey: Basic Monthly   cps/…    2024 Micr… 2024-01… http…
 4 Current Population Survey: Basic Monthly   cps/…    2024 Micr… 2024-03… http…
 5 Current Population Survey: Basic Monthly   cps/…    2024 Micr… 2024-05… http…
 6 Current Population Survey Annual Social a… cps/…    2023 Micr… 2023-03… http…
 7 Current Population Survey: Basic Monthly   cps/…    2023 Micr… 2023-04… http…
 8 Current Population Survey: Basic Monthly   cps/…    2023 Micr… 2023-08… http…
 9 Current Population Survey: Basic Monthly   cps/…    2023 Micr… 2023-12… http…
10 Current Population Survey: Basic Monthly   cps/…    2023 Micr… 2023-02… http…
# ℹ 1,601 more rows
…
2.2.2 Metadata for a specific API by listCensusMetadata()

Get the metadata for the CPS Food Security Supplement December 2021 Public-Use Microdata File

censusapi::listCensusMetadata(
  name = "cps/foodsec/dec", 
  vintage = 2021
  ) |>
  as_tibble() |>
  print()

# A tibble: 512 × 9
   name   label concept predicateType group limit predicateOnly suggested_weight
   <chr>  <chr> <chr>   <chr>         <chr> <chr> <chr>         <chr>           
 1 for    Cens… Census… fips-for      N/A   0     TRUE          <NA>            
 2 in     Cens… Census… fips-in       N/A   0     TRUE          <NA>            
 3 ucgid  Unif… Census… ucgid         N/A   0     TRUE          <NA>            
 4 PEEDU… Demo… <NA>    int           N/A   0     <NA>          PWSSWGT         
 5 PUBUS1 Labo… <NA>    int           N/A   0     <NA>          PWCMPWGT        
 6 PRCOW1 Indu… <NA>    int           N/A   0     <NA>          PWCMPWGT        
 7 HETEL… Hous… <NA>    int           N/A   0     <NA>          HWHHWGT         
 8 PRCOW2 Indu… <NA>    int           N/A   0     <NA>          PWCMPWGT        
 9 PEERN… Earn… <NA>    int           N/A   0     <NA>          PWORWGT         
10 HES9   Scre… <NA>    int           N/A   0     <NA>          HHSUPWGT        
# ℹ 502 more rows
# ℹ 1 more variable: is_weight <chr>
…
HHSUPWGT: Household Supplemental Weight

fss_21_status <- censusapi::getCensus(
  name = "cps/foodsec/dec",
  vintage = 2021,
  # vars is required
  vars = c("HRHHID", "HRHHID2", "PERRP",
           "GESTFIPS", "GTCO", "HRFS12M1",
           "HHSUPWGT") 
  ) |>
  as_tibble() |>
  print()

# A tibble: 102,025 × 7
   HRHHID          HRHHID2 PERRP GESTFIPS GTCO  HRFS12M1 HHSUPWGT  
   <chr>             <dbl> <chr> <chr>    <chr>    <dbl> <chr>     
 1 000005185410966   14011 41    4        27           1 20706.1418
 2 000008175510765   13111 40    5        0           -1 0.0000    
 3 000008175510765   13111 42    5        0           -1 0.0000    
 4 000008175510765   13111 48    5        0           -1 0.0000    
 5 000008175510765   13111 48    5        0           -1 0.0000    
 6 000008175510765   13111 48    5        0           -1 0.0000    
 7 000008175510765   13111 48    5        0           -1 0.0000    
 8 000008177510065   12111 40    5        0           -1 0.0000    
 9 000008177510065   12111 48    5        0           -1 0.0000    
10 000008177510065   12111 48    5        0           -1 0.0000    
# ℹ 102,015 more rows
…
fss_21_status |>
  filter(HRFS12M1 != "-1") |>
  mutate(
    HRFS12M1 = factor(HRFS12M1,
                      levels = c("1", "2", "3", "-9"),
                      labels = c("Food Security",
                                 "Low Food Security",
                                 "Very Low Food Security",
                                 "No Response")),
    HHSUPWGT = as.numeric(HHSUPWGT),
    PERRP = as.numeric(PERRP),
    HRHHID2 = as.character(HRHHID2)
    )

# A tibble: 71,571 × 7
   HRHHID          HRHHID2 PERRP GESTFIPS GTCO  HRFS12M1      HHSUPWGT
   <chr>           <chr>   <dbl> <chr>    <chr> <fct>            <dbl>
 1 000005185410966 14011      41 4        27    Food Security   20706.
 2 000008178510165 13012      41 5        0     Food Security    1754.
 3 000013041104291 13011      40 13       139   Food Security    6486.
 4 000013041104291 13011      42 13       139   Food Security    6486.
 5 000013041104291 13011      48 13       139   Food Security    6486.
 6 000013941103291 12011      40 13       139   Food Security    6284.
 7 000013941103291 12011      42 13       139   Food Security    6284.
 8 000015897210171 13011      40 2        0     Food Security     651.
 9 000015897210171 13011      42 2        0     Food Security     651.
10 000016756309781 12011      41 36       119   Food Security    5615.
# ℹ 71,561 more rows
…
Therefore, we can also use the following code to convert the variable HRFS12M1 to a factor with meaningful labels.

fss_21_status <- fss_21_status |>
  filter(HRFS12M1 != "-1") |>
  mutate(HRFS12M1 = factor(HRFS12M1,
                           levels = HRFS12M1_lb$code,
                           labels = HRFS12M1_lb$label),
         HHSUPWGT = as.numeric(HHSUPWGT),
         PERRP = as.numeric(PERRP),
         HRHHID2 = as.character(HRHHID2)) |>
  print()

# A tibble: 71,571 × 7
   HRHHID          HRHHID2 PERRP GESTFIPS GTCO  HRFS12M1                HHSUPWGT
   <chr>           <chr>   <dbl> <chr>    <chr> <fct>                      <dbl>
 1 000005185410966 14011      41 4        27    Food Secure High or Ma…   20706.
 2 000008178510165 13012      41 5        0     Food Secure High or Ma…    1754.
 3 000013041104291 13011      40 13       139   Food Secure High or Ma…    6486.
 4 000013041104291 13011      42 13       139   Food Secure High or Ma…    6486.
 5 000013041104291 13011      48 13       139   Food Secure High or Ma…    6486.
 6 000013941103291 12011      40 13       139   Food Secure High or Ma…    6284.
 7 000013941103291 12011      42 13       139   Food Secure High or Ma…    6284.
 8 000015897210171 13011      40 2        0     Food Secure High or Ma…     651.
 9 000015897210171 13011      42 2        0     Food Secure High or Ma…     651.
10 000016756309781 12011      41 36       119   Food Secure High or Ma…    5615.
# ℹ 71,561 more rows
…
HRFS12M1 (Summary Food Security Status, 12-Month) is one of the household characteristics. This is the variable used for most food security statistics in USDA’s annual food security report series. In order to compute the prevalence of food insecurity, we need to aggregate the food security status of all persons in the same household. tbl_summary() in the gtsummary package can generate beautiful summary tables.

fss_21_status <- fss_21_status |>
  # # Filter observations with PERRP 40 or 41 (reference person in the household) 
  # filter(PERRP %in% c(40, 41)) |>
  # # Arrange by PERRP
  # arrange(PERRP) |>
  # Keep the record with the lowest-numbered PERRP in the household
  group_by(HRHHID, HRHHID2) |>
  slice_min(PERRP, n = 1) |>
  ungroup() |>
  print()

# A tibble: 30,343 × 7
   HRHHID          HRHHID2 PERRP GESTFIPS GTCO  HRFS12M1                HHSUPWGT
   <chr>           <chr>   <dbl> <chr>    <chr> <fct>                      <dbl>
 1 000005185410966 14011      41 4        27    Food Secure High or Ma…   20706.
 2 000008178510165 13012      41 5        0     Food Secure High or Ma…    1754.
 3 000013041104291 13011      40 13       139   Food Secure High or Ma…    6486.
 4 000013941103291 12011      40 13       139   Food Secure High or Ma…    6284.
 5 000015897210171 13011      40 2        0     Food Secure High or Ma…     651.
 6 000016756309781 12011      41 36       119   Food Secure High or Ma…    5615.
 7 000017986207521 13011      40 27       0     Low Food Security          4323.
 8 000018385405241 14011      40 48       0     Food Secure High or Ma…    5896.
 9 000056133206001 13011      40 26       81    Food Secure High or Ma…    5031.
10 000067043406081 12011      40 47       0     Food Secure High or Ma…    5780.
# ℹ 30,333 more rows
…
\[
\text{Rate} = \frac{\sum_i w_i \cdot L_i}{\sum_i w_i \cdot H_i} \times 100\%
\]

where \(L_i\) is an indicator variable that equals 1 if household \(i\) is in low food security or very low food security, and 0 otherwise; \(H_i\) is an indicator variable that equals 1 if household \(i\) attended the interview for Food Security Supplement and had a response to this question, and 0 otherwise; and \(w_i\) is the weight of household \(i\).

fss_21_status <- fss_21_status |>
  mutate(HRFS12M1_low = ifelse(HRFS12M1 %in% c("Low Food Security",
                                               "Very Low Food Security"),
                               1, 0) * HHSUPWGT,
         HRFS12M1_res = ifelse(HRFS12M1 == "No Response", 0, 1) * HHSUPWGT
  ) |>
  print()

# A tibble: 30,343 × 9
   HRHHID          HRHHID2 PERRP GESTFIPS GTCO  HRFS12M1   HHSUPWGT HRFS12M1_low
   <chr>           <chr>   <dbl> <chr>    <chr> <fct>         <dbl>        <dbl>
 1 000005185410966 14011      41 4        27    Food Secu…   20706.           0 
 2 000008178510165 13012      41 5        0     Food Secu…    1754.           0 
 3 000013041104291 13011      40 13       139   Food Secu…    6486.           0 
 4 000013941103291 12011      40 13       139   Food Secu…    6284.           0 
 5 000015897210171 13011      40 2        0     Food Secu…     651.           0 
 6 000016756309781 12011      41 36       119   Food Secu…    5615.           0 
 7 000017986207521 13011      40 27       0     Low Food …    4323.        4323.
 8 000018385405241 14011      40 48       0     Food Secu…    5896.           0 
 9 000056133206001 13011      40 26       81    Food Secu…    5031.           0 
10 000067043406081 12011      40 47       0     Food Secu…    5780.           0 
# ℹ 30,333 more rows
# ℹ 1 more variable: HRFS12M1_res <dbl>
…
The percentage of households with low food security or very low food security in 2021 is 10.23%. We can verify this result by comparing this number to the USDA Economic Research Report Household Food Security in the United States in 2021 Figure 1.

Since we have already computed the rate of low food security in 2021. We can further investigate the rate of low food security in each state.

We first need to match the FIPS code to the state names using fips_codes() function in tigris package.

# Get the state names
state_names <- tigris::fips_codes |>
  select(state, state_code, state_name) |>
  distinct() |>
  as_tibble() |>
  print()

# A tibble: 57 × 3
   state state_code state_name          
   <chr> <chr>      <chr>               
 1 AL    01         Alabama             
 2 AK    02         Alaska              
 3 AZ    04         Arizona             
 4 AR    05         Arkansas            
 5 CA    06         California          
 6 CO    08         Colorado            
 7 CT    09         Connecticut         
 8 DE    10         Delaware            
 9 DC    11         District of Columbia
10 FL    12         Florida             
# ℹ 47 more rows
…
  group_by(GESTFIPS) |>
  summarize(HRFS12M1_low = sum(HRFS12M1_low),
            HRFS12M1_res = sum(HRFS12M1_res)) |>
  # Notice that state_code is a two digit number
  # But in fss_21_status, it is single digit if the state code is less than 10
  mutate(GESTFIPS = ifelse(as.numeric(GESTFIPS) < 10,
                           str_c("0", GESTFIPS),
                           as.character(GESTFIPS))) |>
  # Left join with state names
  left_join(state_names, by = c("GESTFIPS" = "state_code")) |>
  mutate(low_food_security_rate = HRFS12M1_low / HRFS12M1_res * 100,
         state_name = str_to_lower(state_name)) |>
  print()

# A tibble: 51 × 6
   GESTFIPS HRFS12M1_low HRFS12M1_res state state_name    low_food_security_rate
   <chr>           <dbl>        <dbl> <chr> <chr>                          <dbl>
 1 01            243182.     2095336. AL    alabama                        11.6 
 2 10             52513.      399009. DE    delaware                       13.2 
 3 11             23157.      342487. DC    district of …                   6.76
 4 12            918419.     9217306. FL    florida                         9.96
 5 13            331508.     4233220. GA    georgia                         7.83
 6 15             39073.      469880. HI    hawaii                          8.32
 7 16             67953.      717091. ID    idaho                           9.48
 8 17            488714.     5129502. IL    illinois                        9.53
 9 18            249582.     2730181. IN    indiana                         9.14
10 19             92188.     1344716. IA    iowa                            6.86
# ℹ 41 more rows
…
