Policy Evaluation by Double Machine Learning
…
                              HEFAMINC == 8 ~ 27500,
                              HEFAMINC == 9 ~ 32500,
                              HEFAMINC == 10 ~ 37500,
                              HEFAMINC == 11 ~ 45000,
                              HEFAMINC == 12 ~ 55000,
                              HEFAMINC == 13 ~ 67500,
                              HEFAMINC == 14 ~ 87500,
                              HEFAMINC == 15 ~ 125000,
                              HEFAMINC == 16 ~ 175000),
         HEFAMINC = as.numeric(HEFAMINC),
         HRFS30D4 = as.numeric(HRFS30D4),
  ) |>
  print()

# A tibble: 1,383 × 17
   HRHHID       HRHHID2 HRNUMHOU HRHTYPE GEREG HESP8 PRTAGE PEEDUCA PRCHLD PEMLR
   <chr>          <dbl>    <dbl> <fct>   <fct> <fct>  <dbl> <fct>   <fct>  <fct>
 1 00577061009…   10011        4 Unmarr… South NoWIC     23 HighSc… Child… NotE…
 2 01721051407…   12011        6 Unmarr… Nort… NoWIC     34 LessTh… Child… Empl…
 3 10901946300…   10011        6 Marrie… Nort… NoWIC     51 Colleg… Child… Empl…
 4 01535061200…   12011        3 Unmarr… Nort… NoWIC     49 HighSc… Child… Empl…
 5 01306948400…   10011        6 Marrie… Nort… WIC       42 HighSc… Child… NotI…
 6 50139717020…   12011        3 Marrie… South NoWIC     31 HighSc… Child… Empl…
 7 02130502431…   12011        4 Unmarr… South NoWIC     31 HighSc… Child… NotI…
 8 21060572121…   12011        3 Unmarr… South WIC       33 HighSc… Child… NotE…
 9 01011663046…   12011        5 Indivi… South NoWIC     43 HighSc… NoChi… Empl…
10 27000223810…   10012        4 Unmarr… South NoWIC     52 Colleg… Child… NotE…
# ℹ 1,373 more rows
# ℹ 7 more variables: PTDTRACE <fct>, PEHSPNON <fct>, HEFAMINC <dbl>,
#   HRFS30D1 <fct>, HHSUPWGT <dbl>, PERRP <chr>, HRFS30D4 <dbl>
…
