Data Science and R
…
Convert a regular data frame to tibble, which by default only displays the first 10 rows of data.

# Convert iris to a tibble
iris_tb <- as_tibble(iris)
iris_tb

# A tibble: 150 × 5
   Sepal.Length Sepal.Width Petal.Length Petal.Width Species
          <dbl>       <dbl>        <dbl>       <dbl> <fct>  
 1          5.1         3.5          1.4         0.2 setosa 
 2          4.9         3            1.4         0.2 setosa 
 3          4.7         3.2          1.3         0.2 setosa 
 4          4.6         3.1          1.5         0.2 setosa 
 5          5           3.6          1.4         0.2 setosa 
 6          5.4         3.9          1.7         0.4 setosa 
 7          4.6         3.4          1.4         0.3 setosa 
 8          5           3.4          1.5         0.2 setosa 
 9          4.4         2.9          1.4         0.2 setosa 
10          4.9         3.1          1.5         0.1 setosa 
# ℹ 140 more rows
…
  [1] 5.1 4.9 4.7 4.6 5.0 5.4 4.6 5.0 4.4 4.9 5.4 4.8 4.8 4.3 5.8 5.7 5.4 5.1
 [19] 5.7 5.1 5.4 5.1 4.6 5.1 4.8 5.0 5.0 5.2 5.2 4.7 4.8 5.4 5.2 5.5 4.9 5.0
 [37] 5.5 4.9 4.4 5.1 5.0 4.5 4.4 5.0 5.1 4.8 5.1 4.6 5.3 5.0 7.0 6.4 6.9 5.5
 [55] 6.5 5.7 6.3 4.9 6.6 5.2 5.0 5.9 6.0 6.1 5.6 6.7 5.6 5.8 6.2 5.6 5.9 6.1
 [73] 6.3 6.1 6.4 6.6 6.8 6.7 6.0 5.7 5.5 5.5 5.8 6.0 5.4 6.0 6.7 6.3 5.6 5.5
 [91] 5.5 6.1 5.8 5.0 5.6 5.7 5.7 6.2 5.1 5.7 6.3 5.8 7.1 6.3 6.5 7.6 4.9 7.3
[109] 6.7 7.2 6.5 6.4 6.8 5.7 5.8 6.4 6.5 7.7 7.7 6.0 6.9 5.6 7.7 6.3 6.7 7.2
[127] 6.2 6.1 6.4 7.2 7.4 7.9 6.4 6.3 6.1 7.7 6.3 6.4 6.0 6.9 6.7 6.9 5.8 6.8
[145] 6.7 6.7 6.3 6.5 6.2 5.9

# If subsetting a single column from a tibble, R will output a tibble
iris_tb[, "Sepal.Length"]

# A tibble: 150 × 1
   Sepal.Length
          <dbl>
 1          5.1
 2          4.9
 3          4.7
 4          4.6
 5          5  
 6          5.4
 7          4.6
 8          5  
 9          4.4
10          4.9
# ℹ 140 more rows
…
_join() functions that merge two data frames together, including inner_join(), left_join(), right_join(), and full_join().

The Posit dplyr cheat sheet is extremely intuitive and helpful.

Some examples of using dplyr functions.

Filter observations with Sepal.Length greater than 5.0, arrange the data by Sepal.Length in descending, and create a new column Sepal.Length_2 that is the square of Sepal.Length.

iris_tb |>
  filter(Sepal.Length > 5.0) |>
  arrange(desc(Sepal.Length)) |>
  mutate(Sepal.Length_2 = Sepal.Length^2) |>
  print()

# A tibble: 118 × 6
   Sepal.Length Sepal.Width Petal.Length Petal.Width Species   Sepal.Length_2
          <dbl>       <dbl>        <dbl>       <dbl> <fct>              <dbl>
 1          7.9         3.8          6.4         2   virginica           62.4
 2          7.7         3.8          6.7         2.2 virginica           59.3
 3          7.7         2.6          6.9         2.3 virginica           59.3
 4          7.7         2.8          6.7         2   virginica           59.3
 5          7.7         3            6.1         2.3 virginica           59.3
 6          7.6         3            6.6         2.1 virginica           57.8
 7          7.4         2.8          6.1         1.9 virginica           54.8
 8          7.3         2.9          6.3         1.8 virginica           53.3
 9          7.2         3.6          6.1         2.5 virginica           51.8
10          7.2         3.2          6           1.8 virginica           51.8
# ℹ 108 more rows
…
