Predictive Modeling - Logistic Regression and Regularization
…
Engine-Specific Arguments:
  standardize = FALSE

Computational engine: glmnet 

7.5 Tuning grid

param_grid <- grid_regular(
  penalty(range = c(-6, 3)), 
  mixture(),
  levels = c(100, 5)
  ) |>
  print()

# A tibble: 500 × 2
      penalty mixture
        <dbl>   <dbl>
 1 0.000001         0
 2 0.00000123       0
 3 0.00000152       0
 4 0.00000187       0
 5 0.00000231       0
 6 0.00000285       0
 7 0.00000351       0
 8 0.00000433       0
 9 0.00000534       0
10 0.00000658       0
# ℹ 490 more rows
…
Visualize CV results:

logit_fit |>
  # aggregate metrics from K folds
  collect_metrics() |>
  print(width = Inf) |>
  filter(.metric == "roc_auc") |>
  ggplot(mapping = aes(x = penalty, y = mean, color = factor(mixture))) +
  geom_point() +
  labs(x = "Penalty", y = "CV AUC") +
  scale_x_log10()

# A tibble: 1,000 × 8
      penalty mixture .metric  .estimator  mean     n std_err
        <dbl>   <dbl> <chr>    <chr>      <dbl> <int>   <dbl>
 1 0.000001         0 accuracy binary     0.902     5 0.00235
 2 0.000001         0 roc_auc  binary     0.790     5 0.00560
 3 0.00000123       0 accuracy binary     0.902     5 0.00235
 4 0.00000123       0 roc_auc  binary     0.790     5 0.00560
 5 0.00000152       0 accuracy binary     0.902     5 0.00235
 6 0.00000152       0 roc_auc  binary     0.790     5 0.00560
 7 0.00000187       0 accuracy binary     0.902     5 0.00235
 8 0.00000187       0 roc_auc  binary     0.790     5 0.00560
 9 0.00000231       0 accuracy binary     0.902     5 0.00235
10 0.00000231       0 roc_auc  binary     0.790     5 0.00560
   .config               
   <chr>                 
 1 Preprocessor1_Model001
 2 Preprocessor1_Model001
 3 Preprocessor1_Model002
 4 Preprocessor1_Model002
 5 Preprocessor1_Model003
 6 Preprocessor1_Model003
 7 Preprocessor1_Model004
 8 Preprocessor1_Model004
 9 Preprocessor1_Model005
10 Preprocessor1_Model005
# ℹ 990 more rows
…
